{
  "collections": [
    {
      "name": "Orders",
      "indexes": []
    },
    {
      "name": "Dishes",
      "indexes": [
        {
          "name": "by_name",
          "fields": [
            "name"
          ],
          "settings": {
            "type": "persistent",
            "unique": true,
            "sparse": false,
            "deduplicate": false
          }
        }
      ]
    },
    {
      "name": "Users",
      "indexes": []
    }
  ]
}